teamRISK-V_project1/codes/CPU.vcd
$date
	Thu Dec 03 02:28:52 2020
$end
$version
	Icarus Verilog
$end
$timescale
	1s
$end
$scope module Sign_Extend $end
$var wire 12 ! data_i [11:0] $end
$var wire 32 " data_o [31:0] $end
$upscope $end
$scope module TestBench $end
$var reg 1 # Clk $end
$var reg 1 $ Reset $end
$var reg 1 % Start $end
$var integer 32 & counter [31:0] $end
$var integer 32 ' flush [31:0] $end
$var integer 32 ( i [31:0] $end
$var integer 32 ) outfile [31:0] $end
$var integer 32 * stall [31:0] $end
$scope module CPU $end
$var wire 1 # clk_i $end
$var wire 1 $ rst_i $end
$var wire 1 % start_i $end
$scope module ALU $end
$var wire 32 + data_o [31:0] $end
$var wire 32 , data1_i [31:0] $end
$var wire 32 - data0_i [31:0] $end
$var wire 4 . ALUCtrl_i [3:0] $end
$var reg 32 / data_reg [31:0] $end
$upscope $end
$scope module ALU_Control $end
$var wire 10 0 funct [9:0] $end
$var wire 2 1 ALUOp_i [1:0] $end
$var wire 4 2 ALUCtrl_o [3:0] $end
$upscope $end
$scope module AND $end
$var wire 1 3 bool_o $end
$var wire 1 4 data1_i $end
$var wire 1 5 data0_i $end
$upscope $end
$scope module Add_PC1 $end
$var wire 32 6 data1_in [31:0] $end
$var wire 32 7 data_o [31:0] $end
$var wire 32 8 data0_in [31:0] $end
$upscope $end
$scope module Add_PC2 $end
$var wire 32 9 data0_in [31:0] $end
$var wire 32 : data_o [31:0] $end
$var wire 32 ; data1_in [31:0] $end
$upscope $end
$scope module Control $end
$var wire 1 < RegWrite_o $end
$var wire 7 = Op_i [6:0] $end
$var wire 1 > NoOP $end
$var wire 1 ? MemtoReg_o $end
$var wire 1 @ MemWrite_o $end
$var wire 1 A MemRead_o $end
$var wire 1 5 Branch_o $end
$var wire 1 B ALUSrc_o $end
$var wire 2 C ALUOp_o [1:0] $end
$upscope $end
$scope module Data_Memory $end
$var wire 1 # clk_i $end
$var wire 32 D data_o [31:0] $end
$var wire 32 E data_i [31:0] $end
$var wire 32 F addr_i [31:0] $end
$var wire 1 G MemWrite_i $end
$var wire 1 H MemRead_i $end
$upscope $end
$scope module EX_MEM $end
$var wire 32 I ALUout_i [31:0] $end
$var wire 1 # clk_i $end
$var wire 1 $ rst_i $end
$var wire 32 J rs2_data_i [31:0] $end
$var wire 5 K rd_addr_i [4:0] $end
$var wire 1 L RegWrite_i $end
$var wire 1 M MemtoReg_i $end
$var wire 1 N MemWrite_i $end
$var wire 1 O MemRead_i $end
$var reg 32 P ALUout_o [31:0] $end
$var reg 1 H MemRead_o $end
$var reg 1 G MemWrite_o $end
$var reg 1 Q MemtoReg_o $end
$var reg 1 R RegWrite_o $end
$var reg 5 S rd_addr_o [4:0] $end
$var reg 32 T rs2_data_o [31:0] $end
$upscope $end
$scope module Forward $end
$var wire 1 R EXMEM_RegWrite_i $end
$var wire 5 U EXMEM_rd_addr_i [4:0] $end
$var wire 1 V EX_hazardA $end
$var wire 1 W EX_hazardB $end
$var wire 1 X MEM_hazardA $end
$var wire 1 Y MEM_hazardB $end
$var wire 5 Z MEMWB_rd_addr_i [4:0] $end
$var wire 1 [ MEMWB_RegWrite_i $end
$var wire 5 \ IDEX_rs2_addr_i [4:0] $end
$var wire 5 ] IDEX_rs1_addr_i [4:0] $end
$var wire 2 ^ ForwardB_o [1:0] $end
$var wire 2 _ ForwardA_o [1:0] $end
$upscope $end
$scope module Hazard $end
$var wire 1 > NoOP_o $end
$var wire 1 ` PCWrite_o $end
$var wire 1 $ rst_i $end
$var wire 5 a rs2_addr_i [4:0] $end
$var wire 5 b rs1_addr_i [4:0] $end
$var wire 1 c Stall_o $end
$var wire 5 d IDEX_rd_addr_i [4:0] $end
$var wire 1 O IDEX_MemRead_i $end
$upscope $end
$scope module ID_EX $end
$var wire 2 e ALUOp_i [1:0] $end
$var wire 1 B ALUSrc_i $end
$var wire 1 A MemRead_i $end
$var wire 1 @ MemWrite_i $end
$var wire 1 ? MemtoReg_i $end
$var wire 1 < RegWrite_i $end
$var wire 1 # clk_i $end
$var wire 10 f funct_i [9:0] $end
$var wire 1 $ rst_i $end
$var wire 32 g rs2_data_i [31:0] $end
$var wire 5 h rs2_addr_i [4:0] $end
$var wire 32 i rs1_data_i [31:0] $end
$var wire 5 j rs1_addr_i [4:0] $end
$var wire 5 k rd_addr_i [4:0] $end
$var wire 32 l imm_i [31:0] $end
$var reg 2 m ALUOp_o [1:0] $end
$var reg 1 n ALUSrc_o $end
$var reg 1 O MemRead_o $end
$var reg 1 N MemWrite_o $end
$var reg 1 M MemtoReg_o $end
$var reg 1 o RegWrite $end
$var reg 1 L RegWrite_o $end
$var reg 10 p funct_o [9:0] $end
$var reg 32 q imm_o [31:0] $end
$var reg 5 r rd_addr_o [4:0] $end
$var reg 5 s rs1_addr_o [4:0] $end
$var reg 32 t rs1_data_o [31:0] $end
$var reg 5 u rs2_addr_o [4:0] $end
$var reg 32 v rs2_data_o [31:0] $end
$upscope $end
$scope module IF_ID $end
$var wire 1 3 Flush_i $end
$var wire 1 w IFID_Write_i $end
$var wire 1 # clk_i $end
$var wire 1 $ rst_i $end
$var wire 32 x instruc_i [31:0] $end
$var wire 32 y PC_i [31:0] $end
$var reg 32 z PC_o [31:0] $end
$var reg 32 { instruc_o [31:0] $end
$upscope $end
$scope module Imm_Gen $end
$var wire 32 | instruc_i [31:0] $end
$var wire 32 } imm_o [31:0] $end
$upscope $end
$scope module Instruction_Memory $end
$var wire 32 ~ instr_o [31:0] $end
$var wire 32 !" addr_i [31:0] $end
$upscope $end
$scope module MEM_WB $end
$var wire 32 "" ALUout_i [31:0] $end
$var wire 32 #" Memout_i [31:0] $end
$var wire 1 Q MemtoReg_i $end
$var wire 1 R RegWrite_i $end
$var wire 1 # clk_i $end
$var wire 5 $" rd_addr_i [4:0] $end
$var wire 1 $ rst_i $end
$var reg 32 %" ALUout_o [31:0] $end
$var reg 32 &" Memout_o [31:0] $end
$var reg 1 '" MemtoReg_o $end
$var reg 1 [ RegWrite_o $end
$var reg 5 (" rd_addr_o [4:0] $end
$upscope $end
$scope module MUX_ALUSrc $end
$var wire 32 )" data1_i [31:0] $end
$var wire 32 *" data2_i [31:0] $end
$var wire 32 +" data3_i [31:0] $end
$var wire 2 ," select_i [1:0] $end
$var wire 32 -" data_o [31:0] $end
$var wire 32 ." data0_i [31:0] $end
$upscope $end
$scope module MUX_PC $end
$var wire 32 /" data0_i [31:0] $end
$var wire 32 0" data1_i [31:0] $end
$var wire 32 1" data2_i [31:0] $end
$var wire 32 2" data3_i [31:0] $end
$var wire 2 3" select_i [1:0] $end
$var wire 32 4" data_o [31:0] $end
$upscope $end
$scope module MUX_R1 $end
$var wire 32 5" data0_i [31:0] $end
$var wire 32 6" data2_i [31:0] $end
$var wire 32 7" data3_i [31:0] $end
$var wire 2 8" select_i [1:0] $end
$var wire 32 9" data_o [31:0] $end
$var wire 32 :" data1_i [31:0] $end
$upscope $end
$scope module MUX_R2 $end
$var wire 32 ;" data0_i [31:0] $end
$var wire 32 <" data2_i [31:0] $end
$var wire 32 =" data3_i [31:0] $end
$var wire 2 >" select_i [1:0] $end
$var wire 32 ?" data_o [31:0] $end
$var wire 32 @" data1_i [31:0] $end
$upscope $end
$scope module MUX_WB $end
$var wire 32 A" data0_i [31:0] $end
$var wire 32 B" data1_i [31:0] $end
$var wire 32 C" data2_i [31:0] $end
$var wire 32 D" data3_i [31:0] $end
$var wire 2 E" select_i [1:0] $end
$var wire 32 F" data_o [31:0] $end
$upscope $end
$scope module PC $end
$var wire 1 ` PCWrite_i $end
$var wire 1 # clk_i $end
$var wire 32 G" pc_i [31:0] $end
$var wire 1 $ rst_i $end
$var wire 1 % start_i $end
$var reg 32 H" pc_o [31:0] $end
$upscope $end
$scope module Registers $end
$var wire 5 I" RDaddr_i [4:0] $end
$var wire 32 J" RDdata_i [31:0] $end
$var wire 5 K" RS1addr_i [4:0] $end
$var wire 5 L" RS2addr_i [4:0] $end
$var wire 1 [ RegWrite_i $end
$var wire 1 # clk_i $end
$var wire 32 M" RS2data_o [31:0] $end
$var wire 32 N" RS1data_o [31:0] $end
$upscope $end
$scope module Zero $end
$var wire 32 O" data0_i [31:0] $end
$var wire 32 P" data1_i [31:0] $end
$var wire 1 4 zero_o $end
$upscope $end
$upscope $end
$upscope $end
$enddefinitions $end
#0
$dumpvars
b0 P"
b0 O"
b0 N"
b0 M"
b0 L"
b0 K"
b0 J"
b0 I"
b0 H"
b100 G"
b0 F"
b0 E"
b0 D"
b0 C"
b0 B"
b0 A"
b0 @"
b0 ?"
b0 >"
b0 ="
b0 <"
b0 ;"
b0 :"
b0 9"
b0 8"
b0 7"
b0 6"
b0 5"
b100 4"
b0 3"
b0 2"
b0 1"
b0 0"
b100 /"
b0 ."
b0 -"
b0 ,"
b0 +"
b0 *"
b0 )"
b0 ("
0'"
b0 &"
b0 %"
b0 $"
b0 #"
b0 ""
b0 !"
b101100000000001010010011 ~
b0 }
b0 |
b0 {
b0 z
b0 y
b101100000000001010010011 x
1w
b0 v
b0 u
b0 t
b0 s
b0 r
b0 q
b0 p
1o
0n
b0 m
b0 l
b0 k
b0 j
b0 i
b0 h
b0 g
b0 f
b0 e
b0 d
0c
b0 b
b0 a
1`
b0 _
b0 ^
b0 ]
b0 \
0[
b0 Z
0Y
0X
0W
0V
b0 U
b0 T
b0 S
0R
0Q
b0 P
0O
0N
0M
0L
b0 K
b0 J
b0 I
0H
0G
b0 F
b0 E
b0 D
b0 C
0B
0A
0@
x?
0>
b0 =
0<
b0 ;
b0 :
b0 9
b0 8
b100 7
b100 6
05
14
03
b11 2
b0 1
b0 0
b0 /
b11 .
b0 -
b0 ,
b0 +
b0 *
b11 )
b100000 (
b0 '
b0 &
0%
1$
1#
bz "
bz !
$end
#12
1%
0$
#25
0#
#50
1B
b11 C
b11 e
0?
1<
b1010 9
b1011 l
b1011 }
b101000000000001100010011 x
b101000000000001100010011 ~
b1000 4"
b1000 G"
b10011 =
b1011 a
b1011 h
b101 k
b1011 L"
xM
b1110 :
b1110 0"
b1000 7
b1000 /"
b100 8
b100 ;
b100 y
b100 !"
b100 H"
b101100000000001010010011 {
b101100000000001010010011 |
b1 &
1#
#75
0#
#100
b1011 +
b1011 I
b1011 /
b1010 l
b1010 }
b1011 ,
b1011 -"
b1010 a
b1010 h
b110 k
b1010 L"
b100010111100000011 x
b100010111100000011 ~
b1100 4"
b1100 G"
b1011 q
b1011 )"
b101 K
b101 d
b101 r
b1011 \
b1011 u
b1 ,"
1n
b11 1
b11 m
0M
1L
b101000000000001100010011 {
b101000000000001100010011 |
b100 z
xQ
b10010 :
b10010 0"
b1100 7
b1100 /"
b1000 8
b1000 ;
b1000 y
b1000 !"
b1000 H"
b10 &
1#
#125
0#
#150
1A
1B
b0 C
b0 e
1?
1<
b1010 +
b1010 I
b1010 /
b0 9
b1010 ,
b1010 -"
b0 l
b0 }
b111100000000001110010011 x
b111100000000001110010011 ~
b10000 4"
b10000 G"
bx :"
bx @"
bx F"
bx J"
b11 =
b100 b
b0 a
b100 j
b0 h
b11110 k
b10 f
b100 K"
b0 L"
b1010 q
b1010 )"
b110 K
b110 d
b110 r
b1010 \
b1010 u
b1100 :
b1100 0"
b10000 7
b10000 /"
b1100 8
b1100 ;
b1100 y
b1100 !"
b1100 H"
b0x E"
x'"
b101 S
b101 U
b101 $"
b1011 F
b1011 P
b1011 ""
b1011 6"
b1011 <"
0Q
1R
b100010111100000011 {
b100010111100000011 |
b1000 z
b11 &
1#
#175
0#
#200
b11 C
b11 e
0A
0?
b0 +
b0 I
b0 /
b1110 9
b0 ,
b0 -"
b1111 l
b1111 }
b10011 =
b0 b
b1111 a
b0 j
b1111 h
b111 k
b0 f
b0 K"
b1111 L"
b1011 :"
b1011 @"
b1011 F"
b1011 J"
b1100000000010000010011 x
b1100000000010000010011 ~
b10100 4"
b10100 G"
b0 q
b0 )"
b10 0
b10 p
b11110 K
b11110 d
b11110 r
b0 \
b0 u
b100 ]
b100 s
b0 1
b0 m
1O
1M
b111100000000001110010011 {
b111100000000001110010011 |
b1100 z
b110 S
b110 U
b110 $"
b1010 F
b1010 P
b1010 ""
b1010 6"
b1010 <"
b101 Z
b101 ("
b101 I"
b1011 %"
b1011 A"
b0 E"
0'"
1[
b11110 :
b11110 0"
b10100 7
b10100 /"
b10000 8
b10000 ;
b10000 y
b10000 !"
b10000 H"
b100 &
1#
#225
0#
#250
b1111 +
b1111 I
b1111 /
b10 9
b1111 ,
b1111 -"
b101 D
b101 #"
b11 l
b11 }
b11 .
b11 2
b101100010010110011 x
b101100010010110011 ~
b11000 4"
b11000 G"
b1010 :"
b1010 @"
b1010 F"
b1010 J"
b11 a
b11 h
b1000 k
b11 L"
b1111 q
b1111 )"
b0 0
b0 p
b111 K
b111 d
b111 r
b1111 \
b1111 u
b0 ]
b0 s
b11 1
b11 m
0O
0M
b10110 :
b10110 0"
b11000 7
b11000 /"
b10100 8
b10100 ;
b10100 y
b10100 !"
b10100 H"
b110 Z
b110 ("
b110 I"
b1010 %"
b1010 A"
b11110 S
b11110 U
b11110 $"
b0 F
b0 P
b0 ""
b0 6"
b0 <"
1H
1Q
b1100000000010000010011 {
b1100000000010000010011 |
b10000 z
b101 &
1#
#275
0#
#300
b11 +
b11 I
b11 /
0B
b10 C
b10 e
04
b1000 9
b11 ,
b11 -"
b1011 i
b1011 N"
b1011 O"
b1001 l
b1001 }
b110011 =
b101 b
b0 a
b101 j
b0 h
b1001 k
b100 f
b101 K"
b0 L"
b0 D
b0 #"
b101 :"
b101 @"
b101 F"
b101 J"
b11000101111111000110011 x
b11000101111111000110011 ~
b11100 4"
b11100 G"
b11 q
b11 )"
b1000 K
b1000 d
b1000 r
b11 \
b11 u
b101100010010110011 {
b101100010010110011 |
b10100 z
b111 S
b111 U
b111 $"
b1111 F
b1111 P
b1111 ""
b1111 6"
b1111 <"
0H
0Q
b11110 Z
b11110 ("
b11110 I"
b101 &"
b101 B"
b0 %"
b0 A"
b1 E"
1'"
b100000 :
b100000 0"
b11100 7
b11100 /"
b11000 8
b11000 ;
b11000 y
b11000 !"
b11000 H"
b110 &
1#
#325
0#
#350
b1 .
b1 2
b11100 9
b11100 l
b11100 }
b1011 +
b1011 I
b1011 /
b1010 g
b1010 M"
b1010 P"
b1011 -
b1011 9"
b0 ,
b0 -"
b1000000011000101000010000110011 x
b1000000011000101000010000110011 ~
b100000 4"
b100000 G"
b1111 :"
b1111 @"
b1111 F"
b1111 J"
b110 a
b110 h
b11100 k
b111 f
b110 L"
b1001 q
b1001 )"
b100 0
b100 p
b1001 K
b1001 d
b1001 r
b0 \
b0 u
b101 ]
b101 s
b1011 t
b1011 5"
b0 ,"
0n
b10 1
b10 m
b111000 :
b111000 0"
b100000 7
b100000 /"
b11100 8
b11100 ;
b11100 y
b11100 !"
b11100 H"
b111 Z
b111 ("
b111 I"
b0 &"
b0 B"
b1111 %"
b1111 A"
b0 E"
0'"
b1000 S
b1000 U
b1000 $"
b11 F
b11 P
b11 ""
b11 6"
b11 <"
b11000101111111000110011 {
b11000101111111000110011 |
b11000 z
b111 &
1#
#375
0#
#400
b0 .
b0 2
b10000001000 9
b1010 +
b1010 I
b1010 /
b10000001000 l
b10000001000 }
b1010 ,
b1010 -"
b1010 ."
b1010 ?"
b1000 k
b100000000 f
b11 :"
b11 @"
b11 F"
b11 J"
b10011000110000111010110011 x
b10011000110000111010110011 ~
b100100 4"
b100100 G"
b11100 q
b11100 )"
b111 0
b111 p
b11100 K
b11100 d
b11100 r
b110 \
b110 u
b1010 J
b1010 v
b1010 ;"
b1000000011000101000010000110011 {
b1000000011000101000010000110011 |
b11100 z
b1001 S
b1001 U
b1001 $"
b1011 F
b1011 P
b1011 ""
b1011 6"
b1011 <"
b1000 Z
b1000 ("
b1000 I"
b11 %"
b11 A"
b10000101000 :
b10000101000 0"
b100100 7
b100100 /"
b100000 8
b100000 ;
b100000 y
b100000 !"
b100000 H"
b1000 &
1#
#425
0#
#450
b1 +
b1 I
b1 /
b100 .
b100 2
b111100 9
14
b111101 l
b111101 }
b1010 i
b1010 N"
b1010 O"
b10011101001000111100110011 x
b10011101001000111100110011 ~
b101000 4"
b101000 G"
b1011 :"
b1011 @"
b1011 F"
b1011 J"
b110 b
b110 j
b11101 k
b1000 f
b110 K"
b10000001000 q
b10000001000 )"
b100000000 0
b100000000 p
b1000 K
b1000 d
b1000 r
b1100000 :
b1100000 0"
b101000 7
b101000 /"
b100100 8
b100100 ;
b100100 y
b100100 !"
b100100 H"
b1001 Z
b1001 ("
b1001 I"
b1011 %"
b1011 A"
b11100 S
b11100 U
b11100 $"
b1010 E
b1010 T
b1010 F
b1010 P
b1010 ""
b1010 6"
b1010 <"
b10011000110000111010110011 {
b10011000110000111010110011 |
b100000 z
b1001 &
1#
#475
0#
#500
b101 .
b101 2
b111110 9
04
b111110 l
b111110 }
b1100100 +
b1100100 I
b1100100 /
b1011 i
b1011 N"
b1011 O"
b1111 g
b1111 M"
b1111 P"
b1010 -
b1010 9"
b1001 b
b111 a
b1001 j
b111 h
b11110 k
b1001 K"
b111 L"
b1010 :"
b1010 @"
b1010 F"
b1010 J"
b100100101010001010100011 x
b100100101010001010100011 ~
b101100 4"
b101100 G"
b111101 q
b111101 )"
b1000 0
b1000 p
b11101 K
b11101 d
b11101 r
b110 ]
b110 s
b1010 t
b1010 5"
b10011101001000111100110011 {
b10011101001000111100110011 |
b100100 z
b1000 S
b1000 U
b1000 $"
b1 F
b1 P
b1 ""
b1 6"
b1 <"
b11100 Z
b11100 ("
b11100 I"
b1010 %"
b1010 A"
b1100110 :
b1100110 0"
b101100 7
b101100 /"
b101000 8
b101000 ;
b101000 y
b101000 !"
b101000 H"
b1010 &
1#
#525
0#
#550
1B
1@
b100 9
b0 C
b0 e
x?
0<
14
b101 l
b101 }
b1111 ,
b1111 -"
b10100101 +
b10100101 I
b10100101 /
b1011 g
b1011 M"
b1011 P"
b1111 ."
b1111 ?"
b1011 -
b1011 9"
b0 x
b0 ~
b110000 4"
b110000 G"
b1 :"
b1 @"
b1 F"
b1 J"
b100011 =
b101 b
b1001 a
b101 j
b1001 h
b101 k
b10 f
b101 K"
b1001 L"
b111110 q
b111110 )"
b11110 K
b11110 d
b11110 r
b111 \
b111 u
b1001 ]
b1001 s
b1111 J
b1111 v
b1111 ;"
b1011 t
b1011 5"
b110000 :
b110000 0"
b110000 7
b110000 /"
b101100 8
b101100 ;
b101100 y
b101100 !"
b101100 H"
b1000 Z
b1000 ("
b1000 I"
b1 %"
b1 A"
b11101 S
b11101 U
b11101 $"
b1100100 F
b1100100 P
b1100100 ""
b1100100 6"
b1100100 <"
b100100101010001010100011 {
b100100101010001010100011 |
b101000 z
b1011 &
1#
#575
0#
#600
0B
0@
b0 9
b10000 +
b10000 I
b10000 /
b0 i
b0 N"
b0 O"
b0 g
b0 M"
b0 P"
b0 l
b0 }
b1011 ."
b1011 ?"
b101 ,
b101 -"
b11 .
b11 2
b0 =
b0 b
b0 a
b0 j
b0 h
b0 k
b0 f
b0 K"
b0 L"
b1100100 :"
b1100100 @"
b1100100 F"
b1100100 J"
b110100 4"
b110100 G"
b101 q
b101 )"
b10 0
b10 p
b101 K
b101 d
b101 r
b1001 \
b1001 u
b101 ]
b101 s
b1011 J
b1011 v
b1011 ;"
b1 ,"
1n
b0 1
b0 m
1N
xM
0L
b0 {
b0 |
b101100 z
b11110 S
b11110 U
b11110 $"
b1111 E
b1111 T
b10100101 F
b10100101 P
b10100101 ""
b10100101 6"
b10100101 <"
b11101 Z
b11101 ("
b11101 I"
b1100100 %"
b1100100 A"
b110000 :
b110000 0"
b110100 7
b110100 /"
b110000 8
b110000 ;
b110000 y
b110000 !"
b110000 H"
b1100 &
1#
#625
0#
#650
b0 +
b0 I
b0 /
b0 ."
b0 ?"
b0 -
b0 9"
b0 ,
b0 -"
b111000 4"
b111000 G"
b10100101 :"
b10100101 @"
b10100101 F"
b10100101 J"
b0 q
b0 )"
b0 0
b0 p
b0 K
b0 d
b0 r
b0 \
b0 u
b0 ]
b0 s
b0 J
b0 v
b0 ;"
b0 t
b0 5"
b0 ,"
0n
0N
b110100 :
b110100 0"
b111000 7
b111000 /"
b110100 8
b110100 ;
b110100 y
b110100 !"
b110100 H"
b11110 Z
b11110 ("
b11110 I"
b10100101 %"
b10100101 A"
b101 S
b101 U
b101 $"
b1011 E
b1011 T
b10000 F
b10000 P
b10000 ""
b10000 6"
b10000 <"
1G
xQ
0R
b110000 z
b1101 &
1#
#675
0#
#700
bx :"
bx @"
bx F"
bx J"
b111100 4"
b111100 G"
b110100 z
b0 S
b0 U
b0 $"
b0 E
b0 T
b0 F
b0 P
b0 ""
b0 6"
b0 <"
0G
b101 Z
b101 ("
b101 I"
b10000 %"
b10000 A"
b0x E"
x'"
0[
b111000 :
b111000 0"
b111100 7
b111100 /"
b111000 8
b111000 ;
b111000 y
b111000 !"
b111000 H"
b1110 &
1#
#725
0#
#750
b1000000 4"
b1000000 G"
b111100 :
b111100 0"
b1000000 7
b1000000 /"
b111100 8
b111100 ;
b111100 y
b111100 !"
b111100 H"
b0 Z
b0 ("
b0 I"
b0 %"
b0 A"
b111000 z
b1111 &
1#
#775
0#
#800
b1000100 4"
b1000100 G"
b111100 z
b1000000 :
b1000000 0"
b1000100 7
b1000100 /"
b1000000 8
b1000000 ;
b1000000 y
b1000000 !"
b1000000 H"
b10000 &
1#
#825
0#
#850
b1001000 4"
b1001000 G"
b1000100 :
b1000100 0"
b1001000 7
b1001000 /"
b1000100 8
b1000100 ;
b1000100 y
b1000100 !"
b1000100 H"
b1000000 z
b10001 &
1#
#875
0#
#900
b1001100 4"
b1001100 G"
b1000100 z
b1001000 :
b1001000 0"
b1001100 7
b1001100 /"
b1001000 8
b1001000 ;
b1001000 y
b1001000 !"
b1001000 H"
b10010 &
1#
#925
0#
#950
b1010000 4"
b1010000 G"
b1001100 :
b1001100 0"
b1010000 7
b1010000 /"
b1001100 8
b1001100 ;
b1001100 y
b1001100 !"
b1001100 H"
b1001000 z
b10011 &
1#
#975
0#
#1000
b1010100 4"
b1010100 G"
b1001100 z
b1010000 :
b1010000 0"
b1010100 7
b1010100 /"
b1010000 8
b1010000 ;
b1010000 y
b1010000 !"
b1010000 H"
b10100 &
1#
#1025
0#
#1050
b1011000 4"
b1011000 G"
b1010100 :
b1010100 0"
b1011000 7
b1011000 /"
b1010100 8
b1010100 ;
b1010100 y
b1010100 !"
b1010100 H"
b1010000 z
b10101 &
1#
#1075
0#
#1100
b1011100 4"
b1011100 G"
b1010100 z
b1011000 :
b1011000 0"
b1011100 7
b1011100 /"
b1011000 8
b1011000 ;
b1011000 y
b1011000 !"
b1011000 H"
b10110 &
1#
#1125
0#
#1150
b1100000 4"
b1100000 G"
b1011100 :
b1011100 0"
b1100000 7
b1100000 /"
b1011100 8
b1011100 ;
b1011100 y
b1011100 !"
b1011100 H"
b1011000 z
b10111 &
1#
#1175
0#
#1200
b1100100 4"
b1100100 G"
b1011100 z
b1100000 :
b1100000 0"
b1100100 7
b1100100 /"
b1100000 8
b1100000 ;
b1100000 y
b1100000 !"
b1100000 H"
b11000 &
1#
#1225
0#
#1250
b1101000 4"
b1101000 G"
b1100100 :
b1100100 0"
b1101000 7
b1101000 /"
b1100100 8
b1100100 ;
b1100100 y
b1100100 !"
b1100100 H"
b1100000 z
b11001 &
1#
#1275
0#
#1300
b1101100 4"
b1101100 G"
b1100100 z
b1101000 :
b1101000 0"
b1101100 7
b1101100 /"
b1101000 8
b1101000 ;
b1101000 y
b1101000 !"
b1101000 H"
b11010 &
1#
#1325
0#
#1350
b1110000 4"
b1110000 G"
b1101100 :
b1101100 0"
b1110000 7
b1110000 /"
b1101100 8
b1101100 ;
b1101100 y
b1101100 !"
b1101100 H"
b1101000 z
b11011 &
1#
#1375
0#
#1400
b1110100 4"
b1110100 G"
b1101100 z
b1110000 :
b1110000 0"
b1110100 7
b1110100 /"
b1110000 8
b1110000 ;
b1110000 y
b1110000 !"
b1110000 H"
b11100 &
1#
#1425
0#
#1450
b1111000 4"
b1111000 G"
b1110100 :
b1110100 0"
b1111000 7
b1111000 /"
b1110100 8
b1110100 ;
b1110100 y
b1110100 !"
b1110100 H"
b1110000 z
b11101 &
1#
#1475
0#
#1500
b1111100 4"
b1111100 G"
b1110100 z
b1111000 :
b1111000 0"
b1111100 7
b1111100 /"
b1111000 8
b1111000 ;
b1111000 y
b1111000 !"
b1111000 H"
b11110 &
1#
#1525
0#
#1550
b10000000 4"
b10000000 G"
b1111100 :
b1111100 0"
b10000000 7
b10000000 /"
b1111100 8
b1111100 ;
b1111100 y
b1111100 !"
b1111100 H"
b1111000 z
b11111 &
1#
#1575
0#
#1600
b10000100 4"
b10000100 G"
b1111100 z
b10000000 :
b10000000 0"
b10000100 7
b10000100 /"
b10000000 8
b10000000 ;
b10000000 y
b10000000 !"
b10000000 H"
b100000 &
1#
#1625
0#
#1650
b10001000 4"
b10001000 G"
b10000100 :
b10000100 0"
b10001000 7
b10001000 /"
b10000100 8
b10000100 ;
b10000100 y
b10000100 !"
b10000100 H"
b10000000 z
b100001 &
1#
#1675
0#
#1700
b10001100 4"
b10001100 G"
b10000100 z
b10001000 :
b10001000 0"
b10001100 7
b10001100 /"
b10001000 8
b10001000 ;
b10001000 y
b10001000 !"
b10001000 H"
b100010 &
1#
#1725
0#
#1750
b10010000 4"
b10010000 G"
b10001100 :
b10001100 0"
b10010000 7
b10010000 /"
b10001100 8
b10001100 ;
b10001100 y
b10001100 !"
b10001100 H"
b10001000 z
b100011 &
1#
#1775
0#
#1800
b10010100 4"
b10010100 G"
b10001100 z
b10010000 :
b10010000 0"
b10010100 7
b10010100 /"
b10010000 8
b10010000 ;
b10010000 y
b10010000 !"
b10010000 H"
b100100 &
1#
#1825
0#
#1850
b10011000 4"
b10011000 G"
b10010100 :
b10010100 0"
b10011000 7
b10011000 /"
b10010100 8
b10010100 ;
b10010100 y
b10010100 !"
b10010100 H"
b10010000 z
b100101 &
1#
#1875
0#
#1900
b10011100 4"
b10011100 G"
b10010100 z
b10011000 :
b10011000 0"
b10011100 7
b10011100 /"
b10011000 8
b10011000 ;
b10011000 y
b10011000 !"
b10011000 H"
b100110 &
1#
#1925
0#
#1950
b10100000 4"
b10100000 G"
b10011100 :
b10011100 0"
b10100000 7
b10100000 /"
b10011100 8
b10011100 ;
b10011100 y
b10011100 !"
b10011100 H"
b10011000 z
b100111 &
1#
#1975
0#
#2000
b10100100 4"
b10100100 G"
b10011100 z
b10100000 :
b10100000 0"
b10100100 7
b10100100 /"
b10100000 8
b10100000 ;
b10100000 y
b10100000 !"
b10100000 H"
b101000 &
1#
#2025
0#
#2050
b10101000 4"
b10101000 G"
b10100100 :
b10100100 0"
b10101000 7
b10101000 /"
b10100100 8
b10100100 ;
b10100100 y
b10100100 !"
b10100100 H"
b10100000 z
b101001 &
1#
#2075
0#
#2100
b10101100 4"
b10101100 G"
b10100100 z
b10101000 :
b10101000 0"
b10101100 7
b10101100 /"
b10101000 8
b10101000 ;
b10101000 y
b10101000 !"
b10101000 H"
b101010 &
1#
#2125
0#
#2150
b10110000 4"
b10110000 G"
b10101100 :
b10101100 0"
b10110000 7
b10110000 /"
b10101100 8
b10101100 ;
b10101100 y
b10101100 !"
b10101100 H"
b10101000 z
b101011 &
1#
#2175
0#
#2200
b10110100 4"
b10110100 G"
b10101100 z
b10110000 :
b10110000 0"
b10110100 7
b10110100 /"
b10110000 8
b10110000 ;
b10110000 y
b10110000 !"
b10110000 H"
b101100 &
1#
#2225
0#
#2250
b10111000 4"
b10111000 G"
b10110100 :
b10110100 0"
b10111000 7
b10111000 /"
b10110100 8
b10110100 ;
b10110100 y
b10110100 !"
b10110100 H"
b10110000 z
b101101 &
1#
#2275
0#
#2300
b10111100 4"
b10111100 G"
b10110100 z
b10111000 :
b10111000 0"
b10111100 7
b10111100 /"
b10111000 8
b10111000 ;
b10111000 y
b10111000 !"
b10111000 H"
b101110 &
1#
#2325
0#
#2350
b11000000 4"
b11000000 G"
b10111100 :
b10111100 0"
b11000000 7
b11000000 /"
b10111100 8
b10111100 ;
b10111100 y
b10111100 !"
b10111100 H"
b10111000 z
b101111 &
1#
#2375
0#
#2400
b11000100 4"
b11000100 G"
b10111100 z
b11000000 :
b11000000 0"
b11000100 7
b11000100 /"
b11000000 8
b11000000 ;
b11000000 y
b11000000 !"
b11000000 H"
b110000 &
1#
#2425
0#
#2450
b11001000 4"
b11001000 G"
b11000100 :
b11000100 0"
b11001000 7
b11001000 /"
b11000100 8
b11000100 ;
b11000100 y
b11000100 !"
b11000100 H"
b11000000 z
b110001 &
1#
#2475
0#
#2500
b11001100 4"
b11001100 G"
b11000100 z
b11001000 :
b11001000 0"
b11001100 7
b11001100 /"
b11001000 8
b11001000 ;
b11001000 y
b11001000 !"
b11001000 H"
b110010 &
1#
#2525
0#
#2550
b11010000 4"
b11010000 G"
b11001100 :
b11001100 0"
b11010000 7
b11010000 /"
b11001100 8
b11001100 ;
b11001100 y
b11001100 !"
b11001100 H"
b11001000 z
b110011 &
1#
#2575
0#
#2600
b11010100 4"
b11010100 G"
b11001100 z
b11010000 :
b11010000 0"
b11010100 7
b11010100 /"
b11010000 8
b11010000 ;
b11010000 y
b11010000 !"
b11010000 H"
b110100 &
1#
#2625
0#
#2650
b11011000 4"
b11011000 G"
b11010100 :
b11010100 0"
b11011000 7
b11011000 /"
b11010100 8
b11010100 ;
b11010100 y
b11010100 !"
b11010100 H"
b11010000 z
b110101 &
1#
#2675
0#
